[
	{
		"studentId":"1",
		"name":"Student 1",
		"course":"B.Tech.",
		"year":"1"
	},
	{
		"studentId":"2",
		"name":"Student 2",
		"course":"B.Tech.",
		"year":"2"
	},
	{
		"studentId":"3",
		"name":"Student 3",
		"course":"B.Tech.",
		"year":"3"
	},
	{
		"studentId":"4",
		"name":"Student 4",
		"course":"B.Tech.",
		"year":"4"
	}
]